{
  "changes": [
    {
      "description": "Internal maintenance: Upgrade packages versions: GitPython to 3.1.36.",
      "type": "minor"
    }
  ],
  "created_at": "2023-09-12T12:50:50.046709+00:00",
  "version": "4.2.0"
}